Graph Name: wiki-talk
Graph Nodes: 2394385
Graph Edges: 9319130
Graph Source: 27
WARNING!!! Unconnected nodes: 5432
Front	CPU AVG	CPU STD	CPU_UCB AVG	CPU_UCB STD	GPU AVG	GPU STD	GPU_M AVG	GPU_M STD	GPU_UCB AVG	GPU_UCB STD	
 1	0.350	0.004	12.958	0.374	0.319	0.476	0.930	0.601	41.514	13.379	
 3	0.385	0.004	12.215	0.068	2.047	0.031	1.697	0.036	35.779	0.209	
4178	4.291	0.007	14.413	0.026	10.297	0.166	8.342	0.262	4.237	0.095	
310287	39.604	0.249	33.684	0.130	92.070	25.044	49.531	0.143	3.251	0.026	
2000539	9.635	0.047	4.240	0.023	5.439	0.280	3.679	0.288	1.855	0.091	
72971	1.366	0.006	1.185	0.007	0.726	0.113	1.048	0.309	1.636	0.201	
959	0.379	0.005	1.116	0.010	0.192	0.010	0.831	0.105	1.652	0.179	
14	0.350	0.008	1.122	0.020	0.150	0.003	0.782	0.076	1.541	0.153	
 1	0.348	0.004	1.120	0.013	0.149	0.002	0.796	0.086	1.576	0.190	
