Graph Name: graph4M
Graph Nodes: 4194304
Graph Edges: 25166766
Graph Source: 514965
Front	CPU AVG	CPU STD	CPU_UCB AVG	CPU_UCB STD	GPU AVG	GPU STD	GPU_M AVG	GPU_M STD	GPU_UCB AVG	GPU_UCB STD	
 1	0.609	0.006	18.512	0.504	0.558	1.154	1.299	0.074	70.591	0.820	
 5	0.612	0.005	18.395	0.069	0.182	0.023	1.291	0.033	70.171	0.817	
23	0.616	0.005	18.417	0.094	0.199	0.025	1.287	0.036	69.300	0.616	
145	0.636	0.005	18.434	0.135	0.212	0.021	1.276	0.036	68.189	0.750	
783	0.751	0.015	18.493	0.098	0.323	0.020	1.279	0.041	67.018	0.949	
4324	1.336	0.006	19.053	0.113	0.801	0.022	1.334	0.042	67.163	0.629	
24155	4.535	0.010	22.905	0.084	3.030	0.085	2.209	0.027	66.856	0.787	
132020	19.384	0.014	37.554	0.016	13.216	0.976	9.655	0.440	60.861	0.716	
655429	63.656	-nan	72.563	0.054	79.310	20.337	33.986	0.079	38.846	0.087	
2043416	71.790	0.038	44.450	0.022	108.272	15.341	58.575	0.091	11.105	0.052	
1303144	28.195	0.697	4.026	0.035	31.951	0.535	26.193	0.059	2.430	0.003	
30851	1.863	0.016	1.665	0.020	1.180	0.067	1.418	0.127	2.698	0.294	
 8	0.606	0.004	1.633	0.024	0.209	0.025	1.352	0.125	2.585	0.251	
