Graph Name: wiki-talk
Graph Nodes: 2394385
Graph Edges: 9319130
Graph Source: 27
WARNING!!! Unconnected nodes: 5432
Front	CPU AVG	CPU STD	CPU_UCB AVG	CPU_UCB STD	GPU AVG	GPU STD	GPU_M AVG	GPU_M STD	GPU_UCB AVG	GPU_UCB STD	
 1	4.375	1.008	124.240	12.627	14.992	5.136	8.890	0.325	120.650	0.303	
 3	4.992	0.176	122.502	1.983	18.654	0.048	11.528	0.032	116.377	0.113	
4178	31.191	0.254	66.130	1.046	45.219	0.072	31.813	0.153	32.351	0.040	
310287	228.083	2.629	78.796	0.792	174.964	0.412	153.945	0.088	19.281	0.039	
2000539	55.576	1.800	21.608	0.729	42.303	0.131	35.172	0.037	13.459	0.050	
72971	14.102	0.174	15.365	0.272	14.761	0.038	12.001	0.026	11.058	0.052	
959	4.915	0.064	15.228	0.325	13.360	0.036	8.864	0.030	10.943	0.035	
14	4.708	0.045	15.148	0.232	13.366	0.144	8.806	0.088	11.002	0.102	
 1	4.754	0.173	15.332	0.557	13.509	0.494	8.790	0.076	10.974	0.029	
