Graph Name: liveJournal
Graph Nodes: 4847571
Graph Edges: 86220856
Graph Source: 27
WARNING!!! Unconnected nodes: 3618
Front	CPU AVG	CPU STD	CPU_UCB AVG	CPU_UCB STD	GPU AVG	GPU STD	GPU_M AVG	GPU_M STD	GPU_UCB AVG	GPU_UCB STD	
 1	2.517	0.033	744.795	13.186	39.967	42.510	16.797	1.877	605.635	1.571	
30	2.643	0.029	748.266	7.525	27.043	0.310	17.510	0.030	605.081	1.976	
2074	20.904	0.125	673.925	5.842	52.236	0.148	31.039	0.056	531.161	1.146	
117821	217.239	1.572	270.803	1.723	193.576	0.583	300.762	0.250	202.705	0.508	
1640427	751.798	9.148	131.743	1.035	555.316	2.318	559.800	0.559	57.253	0.072	
2340775	302.423	2.307	80.455	1.019	192.332	0.562	205.474	0.484	29.156	0.087	
648521	75.698	5.448	34.459	2.937	42.323	0.058	41.493	0.116	23.059	0.189	
82269	21.578	1.185	31.695	0.622	27.381	0.078	19.975	0.065	21.998	0.044	
10470	10.878	0.146	31.270	1.621	25.976	0.120	17.816	0.040	21.851	0.057	
1289	9.570	0.038	30.584	0.639	25.748	0.051	17.493	0.029	21.844	0.078	
250	9.456	0.114	30.153	0.424	25.723	0.058	17.451	0.026	21.840	0.062	
23	9.457	0.120	31.087	2.698	25.773	0.102	17.489	0.103	21.849	0.059	
 3	9.475	0.180	30.577	0.642	25.742	0.061	17.433	0.021	21.862	0.138	
