Graph Name: ../../../researchData/roadNet-TX.csr
Graph Nodes: 1379917
Graph Edges: 3843322
Graph Source: 27
WARNING!!! Unconnected nodes: 28780
Front	CPU AVG	CPU STD	CPU_UCB AVG	CPU_UCB STD	GPU AVG	GPU STD	GPU_M AVG	GPU_M STD	GPU_UCB AVG	GPU_UCB STD	
 1	2.539	0.601	29.431	6.176	8.809	2.187	5.374	0.174	15.165	0.187	
 3	2.737	0.039	31.678	0.555	8.079	0.038	5.283	0.016	15.086	0.038	
 4	2.733	0.021	31.904	1.441	8.081	0.052	5.328	0.129	15.093	0.035	
 6	2.729	0.015	31.433	0.483	8.120	0.120	5.294	0.036	15.075	0.030	
11	2.755	0.038	31.558	0.549	8.057	0.028	5.287	0.039	15.121	0.086	
17	2.737	0.027	31.565	0.685	8.067	0.038	5.288	0.015	15.089	0.031	
20	2.734	0.026	31.541	0.389	8.086	0.067	5.314	0.097	15.096	0.045	
25	2.814	0.264	31.452	0.293	8.073	0.046	5.300	0.044	15.126	0.067	
30	2.749	0.035	32.075	1.532	8.081	0.049	5.291	0.032	15.122	0.067	
38	2.770	0.048	32.192	1.670	8.065	0.036	5.293	0.040	15.095	0.056	
35	2.763	0.041	31.623	0.733	8.051	0.024	5.291	0.042	15.086	0.035	
39	2.798	0.203	31.857	1.379	8.094	0.057	5.293	0.029	15.081	0.048	
51	2.745	0.030	31.380	0.134	8.087	0.048	5.335	0.090	15.390	0.903	
56	2.761	0.049	31.622	0.615	8.077	0.045	5.311	0.069	15.121	0.073	
56	2.742	0.046	31.795	0.730	8.056	0.015	5.296	0.014	15.098	0.028	
70	2.811	0.159	31.379	0.348	8.064	0.043	5.304	0.044	15.105	0.074	
74	2.748	0.026	31.684	0.662	8.096	0.061	5.315	0.059	15.074	0.041	
72	2.765	0.042	32.144	1.504	8.098	0.038	5.307	0.037	15.100	0.036	
83	2.781	0.070	32.355	2.295	8.085	0.046	5.302	0.057	15.086	0.040	
85	2.821	0.209	31.340	0.227	8.076	0.057	5.301	0.021	15.097	0.037	
97	2.751	0.021	31.620	0.430	8.100	0.050	5.313	0.053	15.100	0.055	
105	2.757	0.036	31.840	0.813	8.088	0.053	5.305	0.028	15.102	0.033	
109	2.753	0.017	31.977	1.286	8.091	0.059	5.300	0.031	15.098	0.060	
121	2.849	0.234	31.676	0.493	8.070	0.037	5.311	0.036	15.097	0.022	
115	2.824	0.200	31.550	0.211	8.085	0.058	5.358	0.133	15.089	0.046	
129	2.770	0.048	31.645	0.561	8.107	0.052	5.301	0.028	15.095	0.045	
120	2.770	0.057	31.579	0.388	8.127	0.079	5.308	0.056	15.101	0.055	
117	2.823	0.206	31.604	0.404	8.094	0.044	5.328	0.083	15.122	0.089	
124	2.750	0.022	31.603	0.762	8.140	0.168	5.319	0.067	15.109	0.061	
123	2.814	0.163	31.607	0.695	8.097	0.044	5.308	0.032	15.103	0.035	
133	2.829	0.203	31.629	0.697	8.100	0.045	5.318	0.039	15.065	0.043	
135	2.766	0.046	32.807	3.548	8.080	0.061	5.298	0.024	15.083	0.035	
133	2.750	0.021	31.637	0.521	8.143	0.183	5.299	0.027	15.083	0.055	
120	2.773	0.049	31.483	0.433	8.084	0.066	5.305	0.034	15.085	0.035	
106	2.850	0.253	31.459	0.238	8.084	0.036	5.310	0.027	15.105	0.099	
98	2.797	0.069	31.731	0.904	8.077	0.042	5.293	0.039	15.093	0.046	
122	2.774	0.048	31.579	0.395	8.086	0.053	5.315	0.043	15.078	0.053	
131	2.853	0.212	31.507	0.565	8.079	0.041	5.299	0.028	15.112	0.086	
135	2.759	0.025	31.387	0.231	8.100	0.051	5.328	0.065	15.114	0.103	
122	2.754	0.023	31.520	0.398	8.087	0.054	5.293	0.034	15.136	0.064	
128	2.818	0.206	31.815	1.419	8.109	0.062	5.312	0.025	15.108	0.045	
132	2.758	0.034	31.583	0.591	8.128	0.112	5.294	0.025	15.098	0.046	
143	2.773	0.058	31.915	1.785	8.124	0.088	5.357	0.082	15.080	0.057	
157	2.775	0.042	31.476	0.422	8.107	0.086	5.317	0.054	15.066	0.045	
191	2.780	0.048	31.569	0.460	8.071	0.045	5.302	0.016	15.090	0.050	
235	2.776	0.037	31.629	0.499	8.083	0.042	5.309	0.027	15.088	0.069	
235	2.775	0.029	32.048	1.577	8.090	0.047	5.346	0.089	15.086	0.032	
233	2.800	0.102	31.588	0.627	8.082	0.046	5.308	0.020	15.073	0.041	
223	2.788	0.040	31.596	0.740	8.072	0.029	5.329	0.037	15.050	0.043	
243	2.794	0.051	32.052	1.221	8.071	0.043	5.305	0.031	15.054	0.044	
261	2.794	0.044	31.522	0.608	8.107	0.047	5.312	0.050	15.098	0.125	
278	2.775	0.025	31.415	0.166	8.140	0.120	5.323	0.074	15.122	0.145	
275	2.799	0.052	31.534	0.390	8.076	0.042	5.319	0.035	15.094	0.090	
320	2.862	0.208	31.561	0.640	8.077	0.030	5.305	0.016	15.079	0.052	
356	2.827	0.129	31.528	0.561	8.081	0.053	5.323	0.035	15.063	0.037	
351	2.786	0.028	31.351	0.212	8.089	0.033	5.344	0.082	15.073	0.042	
317	2.801	0.039	31.727	0.867	8.067	0.043	5.305	0.013	15.055	0.034	
317	2.793	0.026	32.280	1.835	8.092	0.050	5.305	0.032	15.037	0.039	
339	2.884	0.255	31.505	0.253	8.078	0.048	5.313	0.029	15.054	0.031	
320	2.782	0.037	31.387	0.182	8.137	0.116	5.313	0.032	15.048	0.038	
307	2.792	0.034	31.694	0.751	8.071	0.024	5.357	0.067	15.065	0.038	
317	2.776	0.020	31.612	0.658	8.089	0.061	5.327	0.051	15.088	0.102	
335	2.787	0.024	31.501	0.507	8.107	0.054	5.324	0.033	15.046	0.038	
371	2.876	0.186	31.460	0.516	8.072	0.023	5.315	0.030	15.058	0.071	
380	2.802	0.043	31.523	0.533	8.076	0.024	5.321	0.023	15.068	0.072	
384	2.803	0.041	31.582	0.682	8.152	0.207	5.330	0.035	15.046	0.050	
406	2.784	0.017	31.902	1.410	8.070	0.043	5.331	0.030	15.033	0.029	
378	2.790	0.035	31.522	0.517	8.083	0.053	5.349	0.082	15.038	0.048	
379	2.781	0.016	31.408	0.322	8.107	0.039	5.311	0.017	15.053	0.086	
390	2.788	0.026	31.676	0.755	8.080	0.037	5.323	0.019	15.025	0.040	
354	2.793	0.041	31.413	0.536	8.103	0.131	5.321	0.023	15.034	0.050	
317	2.779	0.028	32.433	3.169	8.110	0.075	5.325	0.062	15.026	0.049	
336	2.785	0.030	31.249	0.254	8.100	0.056	5.325	0.084	15.035	0.040	
344	2.781	0.025	31.632	0.396	8.069	0.026	5.339	0.043	15.046	0.073	
352	2.816	0.046	32.035	1.280	8.087	0.045	5.300	0.024	15.024	0.045	
344	2.867	0.209	31.447	0.300	8.071	0.045	5.321	0.031	15.029	0.063	
327	2.793	0.045	32.108	1.865	8.125	0.132	5.364	0.087	15.019	0.042	
333	2.783	0.038	31.460	0.170	8.094	0.052	5.354	0.082	15.049	0.065	
369	2.799	0.051	31.532	0.780	8.052	0.029	5.324	0.024	15.009	0.039	
342	2.797	0.050	31.593	0.778	8.088	0.055	5.323	0.021	15.008	0.048	
347	2.796	0.051	31.424	0.444	8.109	0.086	5.343	0.076	15.157	0.360	
339	2.782	0.025	31.513	0.734	8.097	0.047	5.324	0.034	15.006	0.063	
334	2.898	0.316	31.656	1.058	8.080	0.037	5.313	0.032	15.017	0.044	
333	2.795	0.038	31.950	1.124	8.062	0.021	5.326	0.025	15.000	0.034	
361	2.796	0.035	32.705	2.424	8.092	0.053	5.319	0.035	15.004	0.054	
394	2.806	0.070	31.644	0.772	8.117	0.098	5.336	0.036	15.007	0.055	
393	2.787	0.027	31.391	0.419	8.111	0.116	5.336	0.047	14.988	0.032	
368	2.788	0.026	31.330	0.306	8.087	0.044	5.327	0.031	15.009	0.071	
376	2.803	0.049	31.615	0.611	8.126	0.097	5.347	0.052	15.053	0.084	
412	2.790	0.031	31.896	0.987	8.125	0.156	5.327	0.036	15.007	0.041	
445	2.805	0.047	31.998	1.503	8.078	0.042	5.337	0.035	14.991	0.044	
477	2.914	0.331	31.394	0.316	8.090	0.056	5.337	0.026	15.018	0.080	
470	2.789	0.020	31.531	0.582	8.088	0.025	5.341	0.035	14.986	0.036	
491	2.799	0.023	31.966	1.281	8.081	0.033	5.338	0.040	14.961	0.020	
534	2.852	0.082	31.960	1.309	8.133	0.195	5.342	0.033	14.973	0.031	
538	2.801	0.020	31.916	1.361	8.134	0.080	5.341	0.048	14.957	0.023	
518	2.833	0.078	31.838	1.069	8.116	0.059	5.366	0.051	14.992	0.074	
499	2.821	0.062	31.516	0.401	8.073	0.032	5.334	0.036	14.978	0.044	
495	2.808	0.058	31.482	0.387	8.118	0.105	5.342	0.032	14.965	0.019	
538	2.823	0.066	31.577	0.361	8.082	0.033	5.357	0.038	14.978	0.094	
544	2.814	0.033	31.447	0.565	8.095	0.034	5.335	0.042	14.972	0.068	
524	2.884	0.200	31.500	0.503	8.103	0.053	5.331	0.035	14.969	0.046	
508	2.816	0.040	31.493	0.525	8.114	0.124	5.352	0.056	14.978	0.096	
542	2.829	0.069	31.308	0.217	8.108	0.061	5.360	0.066	14.972	0.045	
591	2.810	0.031	31.458	0.361	8.117	0.041	5.340	0.027	14.984	0.083	
609	2.822	0.026	31.978	1.246	8.091	0.032	5.351	0.042	14.945	0.042	
664	2.814	0.024	31.661	0.702	8.097	0.029	5.343	0.031	14.924	0.064	
684	2.853	0.082	31.548	0.382	8.122	0.065	5.369	0.075	14.955	0.051	
682	2.921	0.263	31.502	0.411	8.132	0.041	5.347	0.042	14.959	0.069	
684	2.829	0.023	31.428	0.530	8.109	0.036	5.350	0.029	14.987	0.089	
728	2.853	0.061	31.624	0.449	8.108	0.034	5.336	0.023	14.933	0.045	
720	2.820	0.018	31.533	0.293	8.109	0.043	5.362	0.051	14.914	0.025	
682	2.918	0.269	32.657	2.534	8.102	0.028	5.336	0.028	14.882	0.064	
722	2.843	0.036	31.668	0.630	8.116	0.030	5.348	0.029	14.905	0.047	
775	2.836	0.023	31.522	0.601	8.133	0.086	5.351	0.036	14.903	0.034	
795	2.915	0.209	31.630	0.752	8.103	0.027	5.358	0.044	14.953	0.066	
780	2.858	0.049	31.596	0.547	8.111	0.045	5.379	0.072	14.907	0.058	
807	2.858	0.037	31.580	0.308	8.122	0.055	5.356	0.032	14.851	0.042	
868	2.927	0.243	31.384	0.157	8.131	0.057	5.366	0.039	14.909	0.047	
919	2.866	0.031	31.384	0.470	8.472	0.990	5.361	0.034	14.881	0.032	
967	2.858	0.017	31.510	0.216	8.159	0.075	5.376	0.034	14.867	0.070	
992	2.871	0.026	31.673	0.659	8.129	0.032	5.389	0.063	14.912	0.072	
1004	2.894	0.053	31.554	0.680	8.151	0.099	5.404	0.105	14.899	0.061	
1031	2.871	0.024	31.454	0.430	8.133	0.039	5.372	0.031	14.863	0.030	
1089	2.964	0.158	31.347	0.266	8.131	0.044	5.416	0.090	14.869	0.063	
1202	2.941	0.148	31.444	0.453	8.183	0.075	5.383	0.033	14.888	0.061	
1233	2.932	0.065	32.013	1.967	8.138	0.027	5.439	0.096	14.848	0.054	
1287	2.922	0.025	31.425	0.497	8.151	0.045	5.389	0.053	15.252	1.129	
1281	2.921	0.055	31.464	0.524	8.151	0.030	5.384	0.032	14.865	0.054	
1325	2.928	0.024	31.705	1.134	8.142	0.024	5.402	0.038	14.824	0.045	
1380	2.955	0.063	31.404	0.491	8.145	0.028	5.442	0.110	14.796	0.034	
1408	3.013	0.262	31.346	0.272	8.162	0.029	5.415	0.062	14.807	0.034	
1425	2.985	0.044	32.626	3.968	8.172	0.096	5.388	0.051	14.804	0.087	
1473	3.007	0.166	31.828	1.774	8.155	0.062	5.421	0.054	14.799	0.043	
1551	3.005	0.116	31.372	0.506	8.152	0.031	5.444	0.056	14.776	0.037	
1563	2.979	0.023	31.317	0.549	8.153	0.028	5.462	0.051	14.774	0.047	
1556	2.991	0.035	31.599	1.190	8.138	0.020	5.430	0.059	14.753	0.049	
1561	3.281	0.743	31.264	0.524	8.171	0.062	5.419	0.028	14.746	0.034	
1664	3.015	0.048	31.167	0.445	8.192	0.150	5.465	0.054	14.738	0.036	
1702	3.013	0.028	31.045	0.219	8.170	0.030	5.446	0.043	14.768	0.094	
1639	3.025	0.042	31.124	0.467	8.144	0.032	5.431	0.023	14.722	0.028	
1672	3.023	0.036	31.120	0.604	8.191	0.108	5.450	0.045	14.726	0.106	
1685	3.025	0.041	30.951	0.194	8.178	0.052	5.449	0.068	14.715	0.054	
1686	3.026	0.029	31.042	0.377	8.171	0.052	5.432	0.056	14.686	0.034	
1692	3.095	0.199	31.159	0.468	8.192	0.044	5.416	0.031	14.665	0.026	
1763	3.141	0.259	31.045	0.414	8.211	0.141	5.440	0.041	14.671	0.051	
1763	3.206	0.559	30.899	0.206	8.330	0.427	5.427	0.036	14.649	0.037	
1785	3.043	0.039	31.025	0.551	8.165	0.032	5.440	0.057	14.639	0.030	
1794	3.049	0.051	31.166	0.485	8.179	0.048	5.442	0.035	14.633	0.052	
1775	3.041	0.030	31.013	0.563	8.200	0.028	5.412	0.049	14.637	0.039	
1765	3.096	0.113	30.846	0.316	8.219	0.086	5.438	0.069	14.611	0.051	
1787	3.041	0.026	30.928	0.622	8.194	0.072	5.458	0.069	14.615	0.038	
1851	3.040	0.023	30.936	0.305	8.172	0.026	5.452	0.026	14.604	0.031	
1855	3.106	0.176	30.690	0.208	8.205	0.062	5.440	0.039	14.595	0.021	
1813	3.042	0.023	30.728	0.338	8.200	0.099	5.441	0.043	14.592	0.071	
1785	3.057	0.025	30.876	0.639	8.163	0.028	5.440	0.022	14.578	0.050	
1742	3.044	0.040	30.806	0.279	8.160	0.029	5.425	0.045	14.547	0.040	
1672	3.646	1.629	30.641	0.110	8.166	0.046	5.439	0.045	14.592	0.079	
1602	3.044	0.029	30.829	0.657	8.166	0.046	5.423	0.048	14.541	0.047	
1605	3.033	0.031	30.772	0.615	8.167	0.033	5.414	0.012	14.517	0.048	
1597	3.067	0.163	31.197	1.371	8.173	0.034	5.445	0.039	14.551	0.082	
1669	3.046	0.028	30.740	0.609	8.161	0.041	5.428	0.039	14.497	0.034	
1712	3.052	0.030	31.362	1.251	8.171	0.024	5.463	0.041	14.483	0.031	
1806	3.093	0.106	30.637	0.250	8.196	0.054	5.435	0.011	14.495	0.037	
1911	3.164	0.182	30.951	1.323	8.183	0.023	5.443	0.033	14.478	0.039	
1973	3.113	0.065	30.878	1.060	8.182	0.025	5.479	0.070	14.483	0.138	
1986	3.110	0.058	30.885	0.728	8.171	0.030	5.455	0.031	14.463	0.054	
2103	3.129	0.049	30.633	0.448	8.198	0.047	5.491	0.068	14.414	0.026	
2151	3.206	0.142	30.638	0.567	8.212	0.081	5.497	0.038	14.416	0.034	
2146	3.159	0.039	30.864	1.233	8.184	0.034	5.471	0.044	14.432	0.096	
2208	3.163	0.051	30.479	0.489	8.205	0.030	5.465	0.037	14.393	0.047	
2205	3.225	0.243	30.381	0.167	8.218	0.050	5.474	0.039	14.372	0.045	
2216	3.146	0.057	30.621	0.556	8.220	0.059	5.503	0.071	14.376	0.066	
2203	3.184	0.076	30.780	0.881	8.184	0.039	5.512	0.039	14.341	0.035	
2289	3.237	0.190	30.316	0.186	8.220	0.033	5.486	0.033	14.336	0.027	
2420	3.222	0.045	30.281	0.137	8.246	0.081	5.508	0.061	14.357	0.055	
2436	3.186	0.039	30.786	1.028	8.219	0.039	5.485	0.026	14.325	0.026	
2470	3.248	0.169	30.437	0.232	8.224	0.038	5.537	0.105	14.316	0.049	
2495	3.198	0.037	30.267	0.180	8.258	0.144	5.510	0.045	14.324	0.118	
2619	3.221	0.047	30.400	0.178	8.222	0.032	5.510	0.066	14.315	0.084	
2679	3.237	0.066	30.504	0.493	8.235	0.032	5.528	0.064	14.249	0.038	
2719	3.407	0.462	30.215	0.105	8.245	0.041	5.513	0.040	14.266	0.082	
2831	3.242	0.045	30.492	0.558	8.261	0.082	5.539	0.079	14.245	0.042	
2820	3.243	0.053	30.568	0.597	8.237	0.033	5.503	0.024	14.194	0.027	
2807	3.265	0.111	30.693	1.443	8.222	0.015	5.507	0.042	14.203	0.044	
2790	3.224	0.034	30.482	0.723	8.260	0.087	5.506	0.039	14.196	0.043	
2777	3.273	0.146	30.395	0.571	8.238	0.030	5.521	0.030	14.154	0.024	
2834	3.292	0.148	30.385	0.561	8.250	0.076	5.509	0.049	14.156	0.039	
2829	3.258	0.075	30.265	0.159	8.229	0.024	5.539	0.059	14.144	0.045	
2762	3.211	0.033	30.266	0.447	8.243	0.041	5.503	0.037	14.110	0.030	
2729	3.204	0.036	30.116	0.214	8.230	0.038	5.491	0.022	14.130	0.032	
2732	3.215	0.026	31.126	2.075	8.228	0.021	5.505	0.051	14.134	0.109	
2666	3.193	0.034	30.213	0.607	8.230	0.035	5.483	0.037	14.085	0.031	
2766	3.265	0.143	30.099	0.303	8.218	0.033	5.513	0.038	14.070	0.060	
2837	3.221	0.081	30.131	0.422	8.231	0.034	5.518	0.033	14.079	0.039	
2894	3.218	0.031	30.027	0.183	8.283	0.127	5.511	0.032	14.018	0.028	
2898	3.232	0.038	30.128	0.553	8.244	0.067	5.520	0.023	14.029	0.078	
2900	3.240	0.025	30.191	0.715	8.264	0.059	5.516	0.028	13.978	0.048	
2933	3.256	0.064	30.057	0.666	8.257	0.050	5.521	0.049	13.957	0.034	
2951	3.241	0.037	29.849	0.299	8.272	0.106	5.498	0.051	13.957	0.052	
2939	3.268	0.051	30.070	0.581	8.310	0.121	5.547	0.098	13.937	0.040	
2983	3.353	0.215	29.838	0.317	8.257	0.033	5.535	0.055	13.909	0.040	
3044	3.285	0.034	29.788	0.338	8.247	0.038	5.540	0.036	13.925	0.069	
3134	3.301	0.036	29.805	0.305	8.234	0.029	5.538	0.020	13.891	0.053	
3129	3.340	0.043	30.023	0.706	8.294	0.173	5.548	0.026	13.877	0.076	
3229	3.329	0.045	29.810	0.335	8.245	0.021	5.564	0.062	13.856	0.106	
3245	3.350	0.066	29.906	0.481	8.259	0.028	5.542	0.065	13.820	0.050	
3216	3.335	0.060	29.714	0.254	8.263	0.032	5.560	0.067	13.790	0.036	
3124	3.319	0.031	29.739	0.459	8.269	0.059	5.536	0.049	13.835	0.087	
3201	3.352	0.048	30.634	3.127	8.254	0.055	5.592	0.117	13.758	0.044	
3241	3.379	0.185	29.844	0.465	8.253	0.070	5.564	0.042	13.735	0.030	
3246	3.372	0.117	29.684	0.423	8.259	0.037	5.531	0.047	13.717	0.031	
3228	3.344	0.050	30.197	1.446	8.259	0.044	5.531	0.033	13.715	0.058	
3173	3.322	0.046	29.995	1.047	8.263	0.049	5.533	0.031	13.695	0.043	
3142	3.400	0.247	29.599	0.201	8.254	0.041	5.523	0.030	13.675	0.032	
3088	3.332	0.070	29.567	0.209	8.238	0.024	5.524	0.034	13.695	0.074	
2998	3.291	0.029	29.736	0.422	8.229	0.031	5.519	0.026	13.628	0.035	
2901	3.263	0.054	29.651	0.397	8.232	0.053	5.518	0.039	13.636	0.075	
2884	3.280	0.105	29.792	0.622	8.235	0.035	5.509	0.056	13.604	0.064	
2838	3.243	0.036	29.572	0.256	8.222	0.022	5.505	0.047	13.553	0.033	
2787	3.263	0.039	29.418	0.198	8.239	0.036	5.485	0.035	13.531	0.043	
2760	3.251	0.053	30.318	1.405	8.232	0.064	5.523	0.096	13.563	0.080	
2717	3.228	0.039	29.446	0.165	8.242	0.094	5.527	0.104	13.516	0.033	
2675	3.228	0.029	29.468	0.296	8.221	0.049	5.507	0.048	13.552	0.050	
2687	3.224	0.044	29.460	0.408	8.203	0.036	5.489	0.022	13.484	0.034	
2632	3.212	0.051	29.435	0.356	8.226	0.040	5.500	0.038	13.466	0.073	
2480	3.176	0.019	29.309	0.142	8.228	0.040	5.445	0.022	13.462	0.064	
2527	3.193	0.066	29.540	0.349	8.201	0.040	5.464	0.035	13.422	0.038	
2464	3.160	0.038	29.352	0.237	8.221	0.055	5.476	0.058	13.426	0.052	
2384	3.310	0.410	29.701	0.832	8.215	0.096	5.489	0.055	13.417	0.091	
2298	3.140	0.003	29.306	0.188	8.228	0.050	5.462	0.062	13.357	0.034	
2317	3.122	0.028	29.377	0.172	8.198	0.035	5.487	0.043	13.367	0.054	
2248	3.137	0.035	29.465	0.469	8.191	0.031	5.458	0.042	13.404	0.090	
2126	3.111	0.016	29.710	1.377	8.191	0.045	5.464	0.075	13.377	0.101	
2114	3.107	0.031	29.290	0.469	8.206	0.031	5.459	0.065	13.357	0.075	
2132	3.170	0.061	29.645	1.371	8.209	0.088	5.470	0.067	13.296	0.014	
2123	3.110	0.036	29.311	0.296	8.210	0.084	5.495	0.096	13.301	0.051	
2168	3.108	0.019	29.190	0.113	8.201	0.039	5.446	0.065	13.277	0.048	
2147	3.118	0.058	29.670	0.970	8.179	0.035	5.461	0.054	13.357	0.205	
2153	3.105	0.053	29.699	1.095	8.198	0.046	5.435	0.026	13.267	0.037	
2113	3.077	0.028	29.253	0.248	8.212	0.051	5.419	0.030	13.234	0.026	
2139	3.191	0.253	29.493	1.038	8.189	0.031	5.419	0.026	13.231	0.041	
2084	3.190	0.236	29.222	0.163	8.214	0.053	5.415	0.032	13.246	0.055	
2171	3.122	0.109	29.824	1.891	8.172	0.031	5.441	0.045	13.200	0.031	
2198	3.160	0.212	29.196	0.217	8.187	0.020	5.445	0.047	13.177	0.045	
2261	3.146	0.120	29.468	0.967	8.227	0.071	5.426	0.028	13.171	0.023	
2256	3.136	0.067	29.010	0.161	8.242	0.138	5.441	0.034	13.137	0.026	
2258	3.138	0.050	28.977	0.109	8.204	0.050	5.440	0.084	13.154	0.059	
2202	3.109	0.065	29.107	0.391	8.207	0.026	5.431	0.028	13.143	0.041	
2206	3.096	0.051	29.079	0.411	8.184	0.048	5.449	0.056	13.119	0.022	
2199	3.271	0.491	29.132	0.402	8.181	0.039	5.465	0.083	13.102	0.036	
2184	3.093	0.019	29.041	0.263	8.192	0.048	5.422	0.022	13.092	0.033	
2240	3.164	0.182	28.966	0.197	8.222	0.083	5.443	0.035	13.066	0.039	
2354	3.115	0.031	28.941	0.117	8.210	0.031	5.462	0.051	13.052	0.050	
2353	3.113	0.022	28.924	0.291	8.191	0.032	5.472	0.078	13.051	0.067	
2350	3.142	0.065	28.904	0.245	8.197	0.039	5.437	0.029	13.013	0.046	
2352	3.143	0.066	28.959	0.519	8.187	0.038	5.489	0.047	13.007	0.047	
2353	3.146	0.055	29.158	1.004	8.172	0.034	5.455	0.034	13.015	0.054	
2338	3.132	0.049	28.949	0.735	8.193	0.046	5.478	0.035	12.968	0.022	
2344	3.145	0.060	28.834	0.278	8.178	0.021	5.510	0.122	13.002	0.086	
2346	3.227	0.192	28.673	0.290	8.204	0.031	5.470	0.053	12.964	0.036	
2373	3.221	0.244	28.582	0.171	8.219	0.058	5.473	0.036	12.931	0.033	
2535	3.148	0.071	29.233	2.232	8.215	0.056	5.497	0.085	12.951	0.045	
2578	3.147	0.030	28.490	0.140	8.245	0.066	5.500	0.082	12.918	0.026	
2572	3.162	0.041	28.547	0.428	8.198	0.034	5.494	0.043	12.928	0.071	
2538	3.136	0.029	28.595	0.409	8.187	0.026	5.496	0.039	12.908	0.040	
2531	3.176	0.061	28.322	0.149	8.209	0.078	5.498	0.039	12.881	0.045	
2477	3.184	0.095	28.357	0.190	8.187	0.028	5.486	0.032	12.880	0.032	
2469	3.175	0.062	28.388	0.313	8.195	0.044	5.501	0.036	12.869	0.036	
2496	3.137	0.033	28.304	0.178	8.188	0.021	5.520	0.091	12.875	0.051	
2579	3.186	0.060	28.154	0.195	8.199	0.035	5.497	0.034	12.878	0.028	
2646	3.140	0.031	28.150	0.416	8.196	0.025	5.475	0.032	12.842	0.045	
2616	3.160	0.042	28.094	0.173	8.201	0.056	5.495	0.062	12.805	0.042	
2471	3.156	0.058	28.218	0.613	8.190	0.018	5.487	0.028	12.761	0.031	
2466	3.157	0.083	28.003	0.246	8.178	0.015	5.516	0.045	12.791	0.047	
2433	3.134	0.026	27.916	0.199	8.211	0.056	5.477	0.024	12.761	0.023	
2382	3.114	0.017	27.936	0.212	8.232	0.063	5.487	0.059	12.825	0.107	
2334	3.124	0.055	27.979	0.350	8.182	0.022	5.476	0.023	12.748	0.064	
2380	3.177	0.198	28.201	0.967	8.207	0.053	5.471	0.035	12.718	0.032	
2315	3.159	0.054	27.727	0.152	8.172	0.044	5.530	0.094	12.692	0.039	
2316	3.165	0.051	27.890	0.445	8.169	0.023	5.454	0.018	12.687	0.057	
2304	3.190	0.194	27.585	0.214	8.184	0.029	5.470	0.036	12.652	0.044	
2390	3.143	0.020	27.766	0.312	8.198	0.039	5.530	0.084	12.635	0.030	
2536	3.150	0.026	27.721	0.489	8.198	0.026	5.475	0.029	12.635	0.048	
2642	3.237	0.232	27.479	0.144	8.193	0.027	5.493	0.026	12.614	0.032	
2690	3.470	0.944	27.607	0.287	8.221	0.039	5.512	0.074	12.603	0.047	
2703	3.171	0.060	27.666	0.598	8.207	0.046	5.499	0.023	12.601	0.038	
2728	3.158	0.027	27.411	0.377	8.213	0.027	5.513	0.044	12.594	0.040	
2758	3.258	0.233	27.283	0.122	8.240	0.050	5.508	0.048	12.534	0.020	
2819	3.183	0.052	27.473	0.685	8.233	0.058	5.532	0.081	12.637	0.087	
2847	3.205	0.066	27.125	0.161	8.233	0.047	5.505	0.027	12.531	0.041	
2904	3.294	0.317	27.091	0.157	8.234	0.039	5.533	0.043	12.512	0.036	
2971	3.217	0.054	27.011	0.167	8.240	0.037	5.546	0.076	12.512	0.031	
2989	3.187	0.038	26.985	0.145	8.242	0.035	5.510	0.021	12.504	0.049	
3018	3.238	0.052	26.905	0.208	8.280	0.098	5.541	0.039	12.485	0.035	
3091	3.203	0.047	26.856	0.199	8.245	0.026	5.532	0.041	12.441	0.036	
3112	3.215	0.044	26.884	0.375	8.256	0.059	5.516	0.024	12.441	0.055	
3152	3.286	0.202	27.144	1.190	8.274	0.087	5.569	0.052	12.380	0.030	
3169	3.199	0.030	26.709	0.526	8.225	0.016	5.567	0.059	12.401	0.082	
3269	3.218	0.034	26.645	0.530	8.255	0.039	5.603	0.113	12.411	0.132	
3370	3.285	0.197	26.340	0.148	8.247	0.055	5.593	0.091	12.331	0.023	
3321	3.225	0.036	26.313	0.142	8.242	0.035	5.555	0.022	12.322	0.035	
3192	3.202	0.035	26.607	1.418	8.270	0.028	5.568	0.060	12.317	0.059	
3128	3.193	0.029	26.144	0.222	8.230	0.029	5.571	0.046	12.334	0.066	
3189	3.214	0.050	26.127	0.154	8.239	0.033	5.567	0.037	12.264	0.031	
3247	3.316	0.313	26.192	0.434	8.236	0.025	5.567	0.036	12.260	0.059	
3319	3.249	0.050	25.885	0.174	8.287	0.067	5.551	0.032	12.208	0.023	
3390	3.288	0.117	25.844	0.203	8.285	0.083	5.590	0.040	12.197	0.026	
3503	3.340	0.246	25.796	0.191	8.268	0.043	5.581	0.035	12.176	0.043	
3604	3.374	0.216	25.734	0.219	8.306	0.131	5.597	0.028	12.140	0.022	
3635	3.368	0.299	25.818	0.297	8.244	0.022	5.631	0.059	12.173	0.063	
3612	3.292	0.043	25.717	0.162	8.310	0.119	5.621	0.017	12.128	0.045	
3586	3.332	0.077	25.592	0.261	8.297	0.086	5.562	0.032	12.099	0.045	
3520	3.280	0.052	25.533	0.130	8.287	0.130	5.572	0.036	12.076	0.030	
3478	3.283	0.049	25.491	0.423	8.271	0.038	5.582	0.063	12.063	0.046	
3466	3.418	0.283	25.677	0.875	8.281	0.046	5.572	0.043	12.014	0.030	
3512	3.285	0.032	25.411	0.284	8.300	0.120	5.590	0.046	12.011	0.034	
3539	3.304	0.044	25.891	1.311	8.276	0.061	5.606	0.058	12.014	0.079	
3560	3.299	0.039	25.243	0.120	8.301	0.113	5.600	0.043	11.986	0.116	
3642	3.313	0.060	25.175	0.185	8.252	0.020	5.629	0.041	11.927	0.032	
3771	3.340	0.063	25.197	0.434	8.319	0.110	5.617	0.027	11.936	0.038	
3902	3.342	0.041	25.188	0.449	8.283	0.048	5.616	0.035	11.908	0.031	
3973	3.349	0.052	25.071	0.281	8.315	0.081	5.615	0.055	11.891	0.044	
4107	3.446	0.155	24.865	0.098	8.323	0.075	5.615	0.036	11.863	0.038	
4211	3.388	0.064	24.884	0.395	8.297	0.042	5.624	0.028	11.824	0.091	
4136	3.441	0.143	24.679	0.206	8.328	0.053	5.594	0.036	11.811	0.048	
4196	3.395	0.064	24.775	0.564	8.286	0.040	5.618	0.036	11.790	0.059	
4107	3.369	0.038	24.619	0.149	8.303	0.045	5.623	0.043	11.751	0.020	
3924	3.374	0.040	24.485	0.095	8.303	0.063	5.605	0.036	11.765	0.072	
3793	3.375	0.086	24.477	0.205	8.320	0.131	5.601	0.046	11.718	0.041	
3783	3.404	0.182	24.514	0.530	8.264	0.052	5.618	0.044	11.669	0.020	
3865	3.345	0.030	24.749	1.475	8.318	0.121	5.588	0.040	11.658	0.034	
3827	3.404	0.163	24.255	0.357	8.278	0.057	5.600	0.043	11.635	0.014	
3821	3.398	0.067	24.738	2.209	8.274	0.046	5.626	0.086	11.599	0.058	
3961	3.374	0.038	24.320	1.089	8.300	0.073	5.606	0.033	11.541	0.022	
4099	3.469	0.174	23.894	0.275	8.289	0.034	5.594	0.026	11.545	0.040	
4104	3.429	0.080	23.678	0.122	8.324	0.114	5.628	0.046	11.493	0.031	
4146	3.507	0.233	23.636	0.172	8.293	0.034	5.622	0.031	11.653	0.512	
4209	3.485	0.227	23.587	0.186	8.304	0.056	5.608	0.025	11.448	0.036	
4186	3.432	0.054	23.900	1.415	8.299	0.031	5.624	0.028	11.411	0.035	
4267	3.482	0.082	23.287	0.241	8.306	0.096	5.645	0.035	11.398	0.108	
4222	3.548	0.274	23.326	0.324	8.288	0.033	5.636	0.030	11.373	0.044	
4270	3.448	0.039	23.148	0.252	8.283	0.025	5.667	0.058	11.322	0.021	
4268	3.465	0.032	23.056	0.093	8.273	0.016	5.656	0.045	11.349	0.080	
4365	3.497	0.066	22.943	0.311	8.285	0.029	5.670	0.062	11.302	0.024	
4333	3.457	0.029	22.833	0.341	8.286	0.027	5.622	0.023	11.287	0.048	
4165	3.470	0.053	22.704	0.240	8.273	0.031	5.641	0.054	11.243	0.027	
4126	3.466	0.080	22.945	0.858	8.317	0.071	5.615	0.021	11.234	0.036	
4114	3.505	0.152	22.816	0.851	8.293	0.069	5.638	0.051	11.183	0.024	
4138	3.459	0.047	22.497	0.225	8.267	0.014	5.636	0.080	11.173	0.051	
4178	3.446	0.033	22.520	0.296	8.297	0.040	5.659	0.114	11.149	0.039	
4164	3.461	0.051	22.476	0.343	8.275	0.039	5.642	0.040	11.115	0.040	
4201	3.459	0.053	22.377	0.280	8.264	0.035	5.621	0.025	11.129	0.065	
4246	3.517	0.185	22.230	0.293	8.284	0.101	5.649	0.040	11.085	0.024	
4259	3.534	0.222	22.273	0.305	8.269	0.042	5.626	0.043	11.045	0.035	
4252	3.474	0.052	22.645	1.083	8.263	0.017	5.673	0.075	11.012	0.023	
4274	3.474	0.048	22.677	1.153	8.293	0.059	5.679	0.099	10.995	0.031	
4409	3.546	0.140	22.199	0.325	8.303	0.040	5.662	0.038	10.981	0.040	
4472	3.515	0.130	22.261	0.398	8.319	0.065	5.661	0.031	10.955	0.024	
4568	3.487	0.071	22.118	0.490	8.304	0.043	5.671	0.054	10.961	0.070	
4585	3.479	0.045	22.180	0.546	8.287	0.016	5.679	0.044	10.912	0.030	
4713	3.504	0.046	21.962	0.379	8.307	0.047	5.689	0.091	10.886	0.029	
4641	3.477	0.026	21.966	0.465	8.312	0.047	5.652	0.024	10.864	0.046	
4586	3.533	0.219	21.953	0.450	8.318	0.059	5.670	0.041	10.811	0.029	
4561	3.474	0.161	21.900	0.491	8.335	0.037	5.665	0.035	10.794	0.033	
4493	3.419	0.060	21.716	0.505	8.331	0.034	5.636	0.038	10.753	0.037	
4362	3.492	0.271	21.770	0.640	8.340	0.077	5.660	0.024	10.733	0.038	
4457	3.453	0.140	21.560	0.530	8.326	0.077	5.670	0.039	10.724	0.030	
4481	3.507	0.225	21.660	0.538	8.313	0.056	5.652	0.035	10.691	0.036	
4441	3.427	0.054	21.722	0.723	8.361	0.114	5.681	0.038	10.637	0.030	
4302	3.426	0.047	21.628	0.718	8.310	0.052	5.699	0.072	10.621	0.032	
4383	3.423	0.056	21.469	0.630	8.296	0.053	5.673	0.062	10.617	0.057	
4393	3.434	0.076	21.450	0.610	8.308	0.036	5.642	0.047	10.539	0.025	
4450	3.401	0.057	21.418	0.675	8.302	0.049	5.682	0.054	10.544	0.029	
4358	3.406	0.049	21.424	0.754	8.333	0.094	5.658	0.039	10.521	0.037	
4250	3.374	0.049	21.214	0.670	8.322	0.064	5.660	0.080	10.484	0.029	
4136	3.469	0.274	21.356	0.711	8.299	0.027	5.632	0.057	10.466	0.046	
4155	3.352	0.051	21.172	0.771	8.306	0.046	5.633	0.032	10.458	0.075	
4122	3.403	0.085	20.480	0.948	8.274	0.055	5.659	0.085	10.414	0.084	
4041	3.433	0.282	21.091	0.797	8.276	0.031	5.639	0.038	10.369	0.064	
3915	3.330	0.088	21.009	0.743	8.287	0.040	5.670	0.053	10.333	0.032	
3785	3.297	0.054	20.895	0.714	8.309	0.050	5.650	0.043	10.312	0.035	
3717	3.287	0.052	20.856	0.682	8.280	0.042	5.641	0.034	10.304	0.069	
3776	3.303	0.058	20.814	0.783	8.345	0.189	5.627	0.034	10.295	0.121	
3853	3.309	0.075	20.864	0.775	8.295	0.031	5.611	0.035	10.219	0.028	
3922	3.296	0.052	20.669	0.670	8.292	0.052	5.619	0.036	10.205	0.027	
3915	3.305	0.051	20.587	0.685	8.324	0.105	5.640	0.054	10.177	0.033	
3926	3.344	0.077	20.416	1.004	8.318	0.132	5.636	0.040	10.165	0.025	
3907	3.421	0.225	20.966	1.311	8.289	0.041	5.631	0.036	10.142	0.023	
3937	3.293	0.059	20.548	0.661	8.265	0.032	5.667	0.040	10.129	0.031	
4011	3.307	0.047	20.509	0.733	8.283	0.041	5.639	0.059	10.095	0.019	
4033	3.434	0.276	21.065	1.945	8.271	0.045	5.650	0.060	10.082	0.035	
4007	3.294	0.047	20.422	0.635	8.318	0.053	5.627	0.042	10.049	0.037	
3825	3.282	0.062	20.503	0.956	8.279	0.040	5.645	0.093	10.039	0.055	
3755	3.388	0.133	20.432	0.885	8.280	0.046	5.627	0.055	9.993	0.053	
3625	3.360	0.207	20.684	1.907	8.265	0.038	5.602	0.038	9.964	0.028	
3616	3.251	0.057	20.080	0.687	8.255	0.031	5.622	0.042	9.954	0.078	
3666	3.275	0.062	20.219	0.825	8.289	0.075	5.634	0.081	9.924	0.029	
3665	3.304	0.141	20.177	0.688	8.267	0.034	5.605	0.053	9.949	0.081	
3605	3.325	0.173	20.029	0.675	8.265	0.029	5.600	0.073	9.885	0.058	
3537	3.280	0.066	19.922	0.573	8.271	0.048	5.601	0.089	9.855	0.036	
3458	3.289	0.056	19.765	0.561	8.250	0.045	5.529	0.043	9.804	0.040	
3333	3.269	0.046	19.751	0.629	8.262	0.039	5.517	0.032	9.791	0.014	
3221	3.266	0.039	19.603	0.537	8.240	0.046	5.534	0.064	9.777	0.048	
3091	3.234	0.025	19.614	0.594	8.258	0.062	5.513	0.039	9.759	0.044	
2929	3.216	0.041	19.638	0.599	8.249	0.071	5.536	0.075	9.736	0.031	
2871	3.329	0.249	19.511	0.604	8.233	0.048	5.500	0.031	9.738	0.064	
2878	3.228	0.036	19.328	0.501	8.213	0.044	5.515	0.055	9.686	0.033	
2836	3.192	0.021	19.260	0.470	8.216	0.049	5.525	0.045	9.656	0.017	
2847	3.222	0.028	19.279	0.487	8.209	0.037	5.492	0.039	9.661	0.024	
2890	3.226	0.052	19.162	0.471	8.234	0.033	5.468	0.013	9.659	0.063	
2922	3.267	0.058	19.149	0.482	8.236	0.058	5.474	0.034	9.627	0.028	
2890	3.215	0.030	19.111	0.458	8.234	0.041	5.505	0.066	9.615	0.041	
2888	3.837	1.716	19.553	1.232	8.243	0.046	5.478	0.027	9.621	0.080	
2891	3.245	0.122	19.020	0.458	8.224	0.028	5.494	0.033	9.554	0.041	
2876	3.221	0.055	18.899	0.413	8.220	0.036	5.496	0.034	9.550	0.041	
2846	3.208	0.053	18.968	0.428	8.240	0.039	5.481	0.025	9.532	0.054	
2766	3.180	0.023	18.895	0.382	8.217	0.032	5.493	0.035	9.546	0.076	
2690	3.163	0.025	18.745	0.294	8.203	0.031	5.502	0.040	9.514	0.044	
2641	3.267	0.312	18.856	0.590	8.238	0.068	5.483	0.020	9.505	0.080	
2632	3.736	1.634	18.667	0.374	8.226	0.059	5.521	0.067	9.453	0.019	
2661	3.245	0.237	18.769	0.445	8.213	0.043	5.495	0.031	9.488	0.117	
2739	3.164	0.049	18.746	0.360	8.220	0.037	5.504	0.034	9.416	0.024	
2752	3.157	0.027	18.506	0.290	8.205	0.030	5.516	0.033	9.411	0.027	
2684	3.198	0.054	18.492	0.318	8.198	0.011	5.525	0.061	9.392	0.020	
2721	3.172	0.041	18.482	0.346	8.210	0.037	5.500	0.020	9.396	0.043	
2774	3.186	0.059	18.346	0.257	8.221	0.036	5.537	0.064	9.377	0.055	
2799	3.170	0.037	18.415	0.309	8.246	0.061	5.518	0.045	9.352	0.035	
2746	3.203	0.074	18.382	0.390	8.227	0.049	5.523	0.034	9.348	0.045	
2758	3.221	0.153	18.301	0.360	8.208	0.028	5.518	0.056	9.348	0.075	
2792	3.196	0.050	18.260	0.412	8.222	0.054	5.528	0.060	9.310	0.022	
2859	3.274	0.245	18.203	0.208	8.213	0.034	5.528	0.029	9.294	0.043	
2980	3.249	0.085	18.751	1.957	8.216	0.027	5.511	0.026	9.265	0.019	
3012	3.197	0.034	18.062	0.269	8.223	0.035	5.550	0.069	9.272	0.034	
3029	3.189	0.034	18.060	0.253	8.236	0.026	5.511	0.016	9.269	0.088	
3010	3.184	0.029	18.046	0.276	8.215	0.030	5.514	0.022	9.203	0.045	
3037	3.204	0.032	18.021	0.277	8.205	0.014	5.561	0.085	9.185	0.032	
3015	3.188	0.049	18.341	1.156	8.218	0.036	5.514	0.017	9.198	0.078	
2989	3.249	0.133	18.012	0.336	8.223	0.029	5.530	0.095	9.153	0.045	
2982	3.237	0.074	17.904	0.287	8.223	0.039	5.528	0.066	9.146	0.050	
3047	3.254	0.197	17.853	0.311	8.231	0.053	5.541	0.067	9.117	0.026	
3042	3.227	0.045	17.816	0.235	8.222	0.039	5.542	0.085	9.109	0.030	
3077	3.255	0.152	17.667	0.302	8.211	0.019	5.514	0.046	9.105	0.073	
3071	3.223	0.066	18.086	1.219	8.246	0.060	5.545	0.064	9.087	0.048	
3175	3.310	0.174	17.616	0.338	8.205	0.027	5.543	0.084	9.039	0.033	
3132	3.221	0.019	17.681	0.249	8.216	0.037	5.553	0.091	9.010	0.026	
3012	3.220	0.056	17.695	0.379	8.223	0.056	5.519	0.050	9.012	0.065	
2948	3.224	0.069	18.048	1.505	8.229	0.041	5.507	0.031	8.992	0.064	
2991	3.207	0.057	17.610	0.332	8.205	0.022	5.514	0.033	8.965	0.033	
2869	3.256	0.146	17.553	0.397	8.207	0.020	5.496	0.027	8.949	0.033	
2878	3.176	0.031	17.540	0.349	8.205	0.033	5.494	0.029	8.936	0.037	
2824	3.190	0.037	17.524	0.440	8.192	0.016	5.498	0.046	8.935	0.068	
2781	3.162	0.051	17.451	0.438	8.235	0.050	5.492	0.032	8.911	0.032	
2766	3.168	0.055	17.476	0.372	8.210	0.053	5.506	0.050	8.888	0.030	
2740	3.170	0.052	17.954	1.613	8.210	0.040	5.486	0.025	8.880	0.026	
2684	3.158	0.046	17.674	0.647	8.201	0.036	5.501	0.046	8.869	0.034	
2651	3.162	0.089	17.400	0.507	8.263	0.085	5.469	0.028	8.844	0.039	
2613	3.164	0.114	17.534	0.566	8.210	0.028	5.501	0.059	8.809	0.027	
2543	3.152	0.043	18.025	1.641	8.238	0.129	5.473	0.030	8.799	0.051	
2566	3.267	0.206	17.908	1.639	8.197	0.044	5.472	0.088	8.767	0.027	
2469	3.141	0.055	17.331	0.519	8.228	0.098	5.487	0.071	8.758	0.060	
2444	3.133	0.038	17.309	0.423	8.182	0.031	5.457	0.026	8.754	0.051	
2329	3.137	0.056	17.336	0.453	8.170	0.037	5.453	0.067	8.748	0.091	
2247	3.097	0.031	17.609	1.385	8.159	0.016	5.435	0.018	8.715	0.025	
2261	3.105	0.040	17.122	0.471	8.162	0.038	5.473	0.122	8.698	0.037	
2258	3.203	0.257	17.836	1.577	8.179	0.024	5.465	0.074	8.684	0.017	
2255	3.165	0.220	17.197	0.616	8.222	0.041	5.477	0.085	8.682	0.050	
2174	3.089	0.043	17.234	0.538	8.169	0.030	5.446	0.026	8.672	0.039	
2111	3.064	0.027	17.086	0.512	8.151	0.028	5.467	0.047	8.626	0.016	
2089	3.072	0.064	17.128	0.563	8.149	0.020	5.459	0.035	8.635	0.039	
2063	3.137	0.202	17.257	0.697	8.168	0.015	5.471	0.095	8.600	0.030	
1923	3.038	0.059	17.058	0.585	8.163	0.045	5.456	0.067	8.603	0.065	
1913	3.018	0.059	16.959	0.555	8.168	0.030	5.418	0.031	8.590	0.036	
1891	3.031	0.048	17.025	0.564	8.180	0.039	5.408	0.008	8.579	0.020	
1921	3.082	0.076	17.096	0.569	8.152	0.044	5.430	0.034	8.561	0.012	
1941	3.038	0.055	17.023	0.485	8.191	0.059	5.471	0.059	8.583	0.096	
2035	3.041	0.055	16.986	0.563	8.177	0.051	5.452	0.051	8.553	0.053	
2030	3.033	0.030	16.918	0.590	8.204	0.051	5.455	0.030	8.512	0.015	
1952	3.050	0.081	16.944	0.557	8.197	0.028	5.439	0.053	8.507	0.023	
1918	3.101	0.274	16.852	0.603	8.196	0.046	5.463	0.070	8.520	0.051	
2027	3.040	0.041	17.471	2.149	8.186	0.050	5.458	0.044	8.487	0.036	
2113	3.058	0.053	16.866	0.600	8.189	0.031	5.454	0.054	8.485	0.030	
2163	3.093	0.096	17.049	0.889	8.240	0.089	5.472	0.046	8.473	0.055	
2171	3.053	0.049	16.709	0.576	8.224	0.037	5.454	0.035	8.448	0.031	
2261	3.045	0.029	16.585	0.519	8.234	0.047	5.441	0.043	8.446	0.033	
2208	3.228	0.561	16.576	0.555	8.211	0.053	5.456	0.024	8.428	0.036	
2168	3.050	0.036	16.608	0.548	8.224	0.063	5.464	0.032	8.396	0.024	
2135	3.105	0.145	16.610	0.603	8.227	0.104	5.505	0.105	8.397	0.043	
2142	3.032	0.021	16.520	0.565	8.218	0.043	5.444	0.028	8.372	0.020	
2163	3.057	0.052	16.407	0.467	8.219	0.052	5.459	0.029	8.339	0.022	
2017	3.032	0.032	16.392	0.534	8.172	0.019	5.467	0.045	8.359	0.044	
1997	3.127	0.249	16.401	0.496	8.231	0.081	5.466	0.065	8.331	0.025	
2052	3.037	0.036	16.237	0.431	8.217	0.077	5.444	0.038	8.350	0.094	
1998	3.033	0.031	16.061	0.458	8.186	0.056	5.440	0.040	8.301	0.034	
1928	3.029	0.018	16.163	0.330	8.209	0.067	5.430	0.036	8.332	0.066	
1955	3.060	0.105	16.271	0.530	8.236	0.087	5.442	0.026	8.263	0.036	
1942	3.024	0.018	15.979	0.287	8.182	0.039	5.435	0.056	8.288	0.041	
1922	3.016	0.018	15.916	0.208	8.235	0.078	5.429	0.069	8.260	0.045	
1866	3.057	0.043	15.795	0.230	8.202	0.054	5.419	0.044	8.229	0.026	
1871	3.043	0.053	15.903	0.335	8.246	0.053	5.418	0.068	8.233	0.030	
1889	3.041	0.032	15.652	0.304	8.181	0.072	5.424	0.064	8.267	0.080	
1862	3.052	0.053	15.577	0.328	8.231	0.066	5.391	0.026	8.201	0.029	
1833	3.027	0.027	15.552	0.264	8.219	0.061	5.385	0.023	8.199	0.045	
1833	3.053	0.035	15.571	0.534	8.221	0.058	5.370	0.020	8.215	0.110	
1824	3.111	0.125	15.346	0.308	8.241	0.046	5.399	0.035	8.145	0.025	
1886	3.055	0.041	15.378	0.308	8.234	0.052	5.391	0.069	8.163	0.057	
1852	3.060	0.012	15.169	0.205	8.178	0.048	5.402	0.023	8.134	0.025	
1837	3.060	0.022	15.261	0.177	8.147	0.043	5.411	0.033	8.120	0.039	
1823	3.094	0.147	15.321	0.353	8.229	0.119	5.459	0.086	8.136	0.053	
1824	3.055	0.010	15.030	0.200	8.171	0.055	5.387	0.031	8.093	0.027	
1852	3.077	0.042	15.054	0.165	8.213	0.059	5.384	0.030	8.085	0.024	
1809	3.063	0.009	14.998	0.253	8.173	0.049	5.375	0.023	8.082	0.017	
1816	3.162	0.229	14.999	0.376	8.198	0.060	5.405	0.073	8.100	0.088	
1850	3.073	0.017	14.804	0.168	8.201	0.050	5.373	0.022	8.061	0.023	
1883	3.094	0.024	14.753	0.156	8.179	0.052	5.396	0.036	8.050	0.014	
1918	3.096	0.027	14.735	0.338	8.204	0.038	5.386	0.018	8.059	0.045	
2025	3.160	0.094	14.914	0.367	8.227	0.068	5.418	0.094	8.016	0.020	
2012	3.098	0.029	14.722	0.140	8.198	0.059	5.393	0.028	8.003	0.024	
1973	3.079	0.018	14.646	0.158	8.201	0.061	5.398	0.038	7.997	0.044	
1911	3.239	0.502	15.050	1.456	8.207	0.053	5.446	0.119	7.982	0.055	
1904	3.136	0.131	14.696	0.261	8.183	0.063	5.405	0.048	7.995	0.087	
1969	3.098	0.034	14.595	0.192	8.212	0.039	5.400	0.044	7.977	0.092	
1976	3.071	0.029	14.551	0.147	8.221	0.071	5.420	0.054	7.921	0.026	
1955	3.414	1.003	14.610	0.269	8.187	0.059	5.425	0.035	7.921	0.045	
1918	3.149	0.139	14.609	0.277	8.214	0.067	5.428	0.067	7.917	0.023	
2006	3.074	0.029	14.439	0.162	8.182	0.045	5.437	0.057	7.887	0.021	
1998	3.079	0.033	14.520	0.176	8.233	0.037	5.394	0.024	7.883	0.033	
1973	3.077	0.025	14.656	0.567	8.155	0.039	5.438	0.050	7.879	0.026	
1960	3.163	0.178	14.912	1.422	8.224	0.061	5.440	0.065	7.862	0.059	
2018	3.078	0.022	14.424	0.165	8.174	0.048	5.426	0.039	7.849	0.018	
2037	3.090	0.041	14.374	0.211	8.196	0.044	5.411	0.033	7.842	0.040	
2030	3.091	0.089	14.368	0.235	8.207	0.062	5.422	0.043	7.792	0.014	
1991	3.086	0.064	14.281	0.112	8.181	0.057	5.480	0.086	7.860	0.058	
1943	3.050	0.028	14.285	0.114	8.155	0.037	5.434	0.056	7.803	0.035	
1898	3.051	0.023	14.233	0.208	8.244	0.037	5.417	0.041	7.779	0.022	
1933	3.096	0.108	14.231	0.193	8.223	0.042	5.444	0.066	7.788	0.025	
1935	3.067	0.032	14.101	0.098	8.199	0.062	5.420	0.029	7.772	0.039	
1912	3.053	0.029	14.173	0.142	8.164	0.051	5.420	0.036	7.750	0.026	
1998	3.140	0.200	14.157	0.336	8.212	0.022	5.408	0.027	7.749	0.034	
2053	3.068	0.066	14.051	0.146	8.234	0.051	5.417	0.028	7.742	0.038	
2033	3.048	0.022	13.975	0.159	8.158	0.036	5.432	0.052	7.698	0.019	
1958	3.036	0.028	14.062	0.224	8.198	0.049	5.447	0.071	7.749	0.114	
1890	3.057	0.054	13.920	0.155	8.213	0.081	5.453	0.075	7.706	0.038	
1883	3.046	0.024	13.836	0.122	8.323	0.425	5.409	0.032	7.703	0.031	
1889	3.029	0.033	13.860	0.160	8.183	0.059	5.413	0.043	7.698	0.033	
1923	3.081	0.103	13.839	0.210	8.192	0.037	5.449	0.091	7.681	0.033	
1908	3.049	0.037	13.858	0.163	8.167	0.052	5.422	0.037	7.649	0.026	
1899	3.048	0.036	13.808	0.134	8.212	0.040	5.410	0.026	7.643	0.029	
1967	3.048	0.026	13.783	0.203	8.213	0.067	5.430	0.037	7.663	0.075	
2017	3.069	0.021	13.634	0.158	8.175	0.042	5.423	0.030	7.604	0.028	
2102	3.094	0.025	13.750	0.264	8.186	0.034	5.416	0.031	7.594	0.028	
2148	3.127	0.117	13.699	0.235	8.190	0.069	5.411	0.025	7.584	0.035	
2127	3.114	0.026	13.639	0.160	8.212	0.051	5.447	0.036	7.557	0.024	
2128	3.153	0.100	13.676	0.222	8.210	0.063	5.439	0.072	7.555	0.024	
2057	3.098	0.029	13.405	0.137	8.203	0.056	5.425	0.033	7.555	0.042	
2098	3.096	0.026	13.884	1.516	8.170	0.031	5.436	0.037	7.539	0.022	
2069	3.101	0.020	13.352	0.164	8.201	0.044	5.425	0.027	7.577	0.064	
2092	3.128	0.044	13.349	0.154	8.194	0.061	5.421	0.019	7.520	0.035	
2091	3.217	0.130	13.415	0.442	8.217	0.081	5.457	0.067	7.485	0.014	
2086	3.123	0.029	13.141	0.161	8.172	0.043	5.443	0.030	7.496	0.035	
2087	3.119	0.027	13.266	0.500	8.179	0.039	5.412	0.024	7.478	0.024	
2100	3.098	0.042	13.043	0.153	8.181	0.050	5.442	0.051	7.481	0.023	
2125	3.101	0.031	13.406	0.934	8.210	0.046	5.451	0.059	7.463	0.026	
2255	3.148	0.107	12.887	0.129	8.221	0.055	5.446	0.039	7.482	0.087	
2303	3.120	0.032	12.782	0.102	8.217	0.062	5.452	0.042	7.432	0.045	
2314	3.157	0.062	12.808	0.185	8.239	0.097	5.545	0.101	7.436	0.067	
2354	3.465	0.959	12.799	0.170	8.207	0.054	5.474	0.047	7.417	0.040	
2417	3.271	0.225	13.032	0.386	8.171	0.030	5.441	0.017	7.381	0.028	
2503	3.121	0.042	12.605	0.169	8.241	0.044	5.441	0.031	7.380	0.028	
2428	3.150	0.044	12.849	0.297	8.226	0.090	5.443	0.048	7.368	0.030	
2319	3.134	0.045	12.464	0.172	8.215	0.039	5.447	0.027	7.345	0.019	
2107	3.135	0.095	12.595	0.313	8.221	0.059	5.436	0.030	7.333	0.029	
1983	3.056	0.043	12.243	0.135	8.323	0.422	5.406	0.007	7.338	0.041	
1971	3.116	0.148	12.316	0.239	8.191	0.052	5.437	0.060	7.316	0.039	
1819	3.021	0.036	12.170	0.163	8.204	0.043	5.416	0.032	7.336	0.029	
1764	3.031	0.045	12.062	0.131	8.224	0.072	5.401	0.026	7.341	0.053	
1708	3.249	0.677	12.190	0.554	8.225	0.064	5.407	0.037	7.346	0.150	
1699	2.994	0.019	11.928	0.148	8.228	0.037	5.401	0.030	7.294	0.031	
1732	3.194	0.466	12.358	0.596	8.188	0.052	5.397	0.028	7.281	0.037	
1677	2.974	0.019	11.823	0.200	8.211	0.058	5.401	0.037	7.267	0.032	
1617	2.982	0.027	11.775	0.181	8.207	0.054	5.442	0.074	7.273	0.041	
1638	2.984	0.031	11.705	0.143	8.197	0.047	5.409	0.028	7.232	0.019	
1593	2.988	0.038	11.667	0.118	8.238	0.035	5.393	0.022	7.229	0.057	
1574	3.061	0.171	11.696	0.267	8.229	0.060	5.409	0.066	7.185	0.023	
1550	2.996	0.036	11.627	0.460	8.230	0.036	5.403	0.056	7.191	0.027	
1559	2.973	0.026	11.432	0.153	8.175	0.055	5.405	0.031	7.165	0.026	
1568	2.994	0.045	11.466	0.166	8.322	0.369	5.371	0.020	7.161	0.041	
1578	2.970	0.018	11.350	0.154	8.175	0.047	5.391	0.024	7.167	0.049	
1586	3.029	0.127	11.279	0.144	8.237	0.061	5.413	0.074	7.149	0.053	
1567	2.957	0.022	11.212	0.130	8.144	0.035	5.397	0.038	7.146	0.043	
1551	2.968	0.036	11.097	0.100	8.218	0.048	5.384	0.068	7.139	0.040	
1484	2.963	0.045	11.276	0.239	8.164	0.043	5.391	0.040	7.123	0.046	
1457	2.973	0.074	11.115	0.188	8.207	0.068	5.374	0.029	7.102	0.019	
1407	2.991	0.053	10.940	0.130	8.359	0.415	5.422	0.098	7.144	0.083	
1391	2.947	0.029	10.994	0.174	8.209	0.047	5.344	0.029	7.065	0.025	
1387	2.948	0.025	10.991	0.192	8.148	0.045	5.432	0.179	7.066	0.048	
1371	2.957	0.044	11.841	1.800	8.465	0.479	5.361	0.044	7.089	0.074	
1363	2.940	0.035	10.893	0.151	8.193	0.071	5.347	0.024	7.040	0.027	
1357	2.946	0.027	10.851	0.185	8.233	0.045	5.379	0.064	7.070	0.085	
1337	3.009	0.152	10.726	0.168	8.194	0.071	5.350	0.054	7.020	0.031	
1288	2.959	0.053	10.848	0.236	8.188	0.064	5.345	0.034	7.009	0.026	
1234	2.996	0.197	11.008	0.440	8.146	0.032	5.342	0.031	7.044	0.091	
1167	2.934	0.052	10.872	0.466	8.199	0.037	5.332	0.039	7.000	0.047	
1170	2.946	0.031	10.618	0.185	8.144	0.056	5.356	0.036	7.042	0.104	
1198	2.942	0.012	10.613	0.163	8.141	0.041	5.348	0.035	6.964	0.026	
1149	2.956	0.049	10.614	0.194	8.298	0.403	5.358	0.043	6.972	0.033	
1186	3.084	0.281	11.015	0.863	8.347	0.386	5.355	0.067	6.977	0.029	
1181	2.962	0.038	10.378	0.109	8.345	0.399	5.322	0.023	6.958	0.030	
1119	2.949	0.030	10.372	0.131	8.322	0.405	5.315	0.021	6.943	0.027	
1087	2.988	0.156	10.544	0.463	8.156	0.072	5.340	0.034	6.930	0.026	
1022	2.970	0.055	10.281	0.140	8.288	0.351	5.321	0.022	6.929	0.032	
962	2.924	0.023	10.330	0.124	8.310	0.437	5.325	0.054	6.929	0.034	
911	2.930	0.087	10.474	0.434	8.314	0.426	5.308	0.026	6.922	0.033	
838	2.916	0.035	10.137	0.058	8.313	0.440	5.328	0.040	6.907	0.029	
792	2.913	0.046	10.202	0.178	8.308	0.422	5.361	0.088	6.945	0.077	
786	2.894	0.034	10.137	0.183	8.431	0.543	5.335	0.037	6.914	0.059	
705	2.899	0.043	10.229	0.191	8.275	0.409	5.317	0.042	6.897	0.028	
643	3.031	0.269	10.352	0.392	8.269	0.415	5.339	0.105	6.905	0.030	
634	2.874	0.029	10.141	0.150	8.294	0.417	5.302	0.030	6.868	0.042	
669	3.188	0.850	10.140	0.229	8.245	0.419	5.326	0.038	6.887	0.022	
698	2.949	0.141	10.224	0.211	8.278	0.413	5.300	0.030	6.874	0.025	
700	2.900	0.051	10.142	0.186	8.281	0.416	5.305	0.024	6.855	0.018	
668	2.868	0.022	10.110	0.174	8.160	0.069	5.310	0.039	6.891	0.078	
609	2.874	0.052	10.334	0.635	8.148	0.051	5.294	0.020	6.856	0.030	
563	2.923	0.136	10.113	0.181	8.460	0.561	5.307	0.022	6.847	0.017	
554	2.866	0.031	10.191	0.219	8.268	0.413	5.312	0.039	6.916	0.124	
529	2.868	0.039	10.091	0.209	8.415	0.522	5.307	0.020	6.869	0.029	
519	2.857	0.046	10.166	0.243	8.290	0.431	5.301	0.041	6.843	0.021	
486	2.871	0.106	10.276	0.425	8.154	0.079	5.343	0.091	6.893	0.086	
414	2.849	0.043	10.015	0.147	8.409	0.549	5.306	0.044	6.842	0.022	
381	2.843	0.037	10.103	0.241	8.238	0.429	5.298	0.042	6.833	0.027	
383	2.908	0.103	10.393	0.451	8.256	0.405	5.305	0.054	6.851	0.049	
369	2.846	0.051	10.116	0.236	8.253	0.404	5.281	0.018	6.887	0.133	
392	2.836	0.050	10.035	0.212	8.245	0.402	5.304	0.034	6.839	0.049	
374	2.947	0.193	10.335	0.540	8.241	0.417	5.336	0.067	6.836	0.027	
346	2.832	0.030	9.976	0.168	8.415	0.549	5.291	0.038	6.833	0.050	
354	2.834	0.041	10.137	0.276	8.311	0.393	5.289	0.031	6.824	0.044	
362	2.955	0.170	10.201	0.252	8.291	0.433	5.291	0.020	6.839	0.031	
396	2.906	0.136	10.114	0.265	8.277	0.425	5.291	0.034	6.816	0.024	
402	2.863	0.064	10.023	0.248	8.296	0.415	5.287	0.017	6.809	0.014	
403	2.859	0.082	10.129	0.253	8.256	0.411	5.297	0.037	6.800	0.032	
377	2.839	0.044	10.023	0.266	8.279	0.413	5.302	0.053	6.819	0.035	
382	2.829	0.031	10.062	0.192	8.153	0.051	5.299	0.036	6.821	0.077	
408	2.852	0.050	10.068	0.310	8.240	0.414	5.308	0.032	6.794	0.035	
420	2.841	0.045	10.059	0.269	8.097	0.066	5.291	0.020	6.805	0.031	
433	2.862	0.046	10.084	0.209	8.246	0.416	5.310	0.045	6.817	0.074	
427	2.850	0.033	10.091	0.207	8.403	0.527	5.309	0.026	6.804	0.079	
443	2.867	0.057	10.047	0.284	8.262	0.417	5.302	0.057	6.773	0.027	
470	2.837	0.021	10.083	0.360	8.300	0.446	5.359	0.095	6.791	0.076	
453	2.894	0.142	10.086	0.338	8.244	0.470	5.302	0.038	6.771	0.026	
469	2.858	0.048	10.016	0.325	8.142	0.056	5.306	0.034	6.769	0.031	
469	2.850	0.038	10.080	0.303	8.425	0.578	5.346	0.120	6.784	0.067	
509	2.851	0.038	10.053	0.346	8.275	0.405	5.284	0.028	6.762	0.034	
468	2.851	0.039	9.980	0.292	8.269	0.394	5.302	0.026	6.755	0.022	
456	2.833	0.029	10.033	0.357	8.146	0.050	5.338	0.060	6.799	0.083	
447	2.838	0.021	10.136	0.365	8.291	0.454	5.295	0.027	6.748	0.020	
465	2.858	0.039	10.041	0.328	8.252	0.410	5.306	0.051	6.758	0.039	
504	2.861	0.044	10.009	0.340	8.263	0.402	5.317	0.052	6.744	0.024	
483	2.856	0.053	10.115	0.366	8.140	0.054	5.282	0.023	6.756	0.050	
486	2.877	0.056	10.140	0.623	8.111	0.053	5.323	0.076	6.741	0.040	
495	2.859	0.059	9.996	0.315	8.151	0.046	5.332	0.073	6.752	0.043	
448	2.831	0.042	10.291	0.726	8.434	0.522	5.288	0.028	6.747	0.025	
402	2.848	0.049	9.961	0.327	8.257	0.407	5.321	0.039	6.727	0.022	
369	2.836	0.043	10.038	0.318	8.103	0.058	5.308	0.050	6.757	0.082	
369	2.829	0.022	10.110	0.416	8.258	0.450	5.330	0.107	6.745	0.050	
384	2.842	0.072	9.949	0.284	8.175	0.049	5.283	0.022	6.727	0.029	
384	2.827	0.021	10.006	0.236	8.279	0.403	5.329	0.079	6.758	0.080	
361	2.833	0.040	9.968	0.340	8.279	0.399	5.282	0.024	6.711	0.019	
355	2.823	0.027	10.500	1.441	8.664	1.218	5.317	0.068	6.737	0.035	
294	2.817	0.015	10.016	0.271	8.295	0.390	5.345	0.094	6.766	0.080	
274	2.848	0.062	9.928	0.171	8.410	0.525	5.292	0.061	6.725	0.025	
259	2.818	0.007	9.931	0.335	8.278	0.407	5.293	0.026	6.730	0.047	
272	2.894	0.106	9.953	0.213	8.382	0.491	5.330	0.086	6.705	0.026	
263	2.813	0.023	10.013	0.392	8.265	0.409	5.278	0.021	6.726	0.034	
259	2.830	0.050	10.104	0.707	8.420	0.536	5.282	0.020	6.724	0.046	
250	2.928	0.183	10.114	0.447	8.279	0.394	5.289	0.034	6.703	0.031	
258	2.832	0.042	9.996	0.361	8.142	0.047	5.286	0.054	6.705	0.026	
256	2.830	0.055	9.909	0.345	8.170	0.072	5.300	0.032	6.714	0.033	
265	2.909	0.205	9.967	0.266	8.246	0.227	5.342	0.092	6.698	0.048	
267	2.811	0.026	9.924	0.366	8.300	0.427	5.297	0.049	6.709	0.028	
284	2.825	0.036	9.964	0.407	8.276	0.394	5.288	0.034	6.697	0.027	
303	2.819	0.035	10.011	0.295	8.121	0.057	5.331	0.106	6.744	0.076	
310	2.806	0.023	10.149	0.547	8.273	0.398	5.289	0.037	6.699	0.018	
322	2.828	0.040	9.890	0.400	8.431	0.547	5.284	0.025	6.701	0.031	
320	2.819	0.034	10.076	0.369	8.320	0.498	5.316	0.050	6.722	0.087	
302	2.839	0.055	10.208	0.711	8.260	0.402	5.285	0.042	6.686	0.038	
256	2.816	0.044	10.141	0.232	8.310	0.463	5.273	0.030	6.691	0.036	
182	2.888	0.213	10.041	0.320	8.333	0.390	5.332	0.085	6.687	0.043	
160	2.799	0.039	10.044	0.457	8.262	0.421	5.264	0.026	6.700	0.044	
140	2.797	0.045	10.066	0.365	8.283	0.399	5.260	0.030	6.696	0.033	
111	2.813	0.075	9.961	0.293	8.268	0.437	5.320	0.075	6.744	0.071	
113	2.787	0.048	9.919	0.399	8.278	0.386	5.300	0.102	6.716	0.100	
92	2.785	0.040	9.904	0.392	8.405	0.529	5.270	0.032	6.679	0.024	
86	2.794	0.053	10.124	0.656	8.408	0.532	5.320	0.076	6.694	0.041	
56	2.788	0.047	10.010	0.497	8.245	0.417	5.270	0.031	6.702	0.054	
46	2.787	0.032	10.071	0.496	8.081	0.068	5.253	0.024	6.685	0.046	
29	2.783	0.048	9.988	0.488	8.108	0.050	5.267	0.028	6.738	0.105	
19	3.053	0.798	10.086	0.376	8.229	0.409	5.266	0.041	6.671	0.017	
12	2.784	0.049	9.918	0.447	8.406	0.522	5.263	0.028	6.688	0.029	
 8	2.785	0.042	9.954	0.438	8.268	0.446	5.318	0.080	6.698	0.076	
 7	2.772	0.045	9.996	0.484	8.270	0.402	5.275	0.042	6.680	0.035	
 2	2.782	0.033	10.031	0.499	8.248	0.466	5.253	0.022	6.676	0.027	
