Front	CPU AVG	CPU STD	CPU_UCB AVG	CPU_UCB STD	GPU AVG	GPU STD	GPU_M AVG	GPU_M STD	GPU_UCB AVG	GPU_UCB STD	
 1	0.768	0.072	3.057	0.166	0.947	0.268	0.639	0.029	10.826	0.284	
24	0.760	0.130	2.960	0.318	1.586	0.231	0.986	0.125	8.251	1.133	
1835	1.486	0.119	4.124	0.220	7.110	0.127	5.507	0.100	2.183	0.075	
27345	4.120	0.327	8.783	1.104	10.153	0.586	8.676	0.536	2.628	0.548	
181413	3.137	0.160	2.452	0.059	3.403	0.147	2.414	0.128	3.248	0.151	
12936	1.122	0.073	1.386	0.057	1.177	0.105	0.801	0.023	2.944	0.074	
1142	0.784	0.090	1.276	0.107	0.665	0.061	0.540	0.064	2.921	0.074	
86	0.756	0.068	1.258	0.048	0.592	0.029	0.526	0.018	2.924	0.068	
 9	0.749	0.069	2.518	17.158	0.591	0.056	0.523	0.027	2.923	0.073	
 1	0.752	0.065	1.265	0.047	0.663	0.025	0.536	0.007	2.927	0.071	
40	0.741	0.097	1.251	0.080	0.582	0.182	0.517	0.026	2.928	0.073	
