Graph	CPU TD	CPU BU	GPU TD	Selective	Concurrent
amazon	2.89959	2.92655	4.50916	4.305132	5.25798
youtube	4.17977	4.44868	5.45684	6.2350353	6.3678186
google	5.72752	5.30562	6.91002	8.14905	7.8795054
liveJournal	11.0103	12.5171	12.7853	14.687712	11.4758514
wiki-talk	4.60049	4.52655	4.33727	7.2381465	6.9319926
email	3.3664	3.4026	1.38793	2.8937025	3.4922628
graph8M	2.95283	3.26398	5.40882	5.1330006	5.4366039
graph16M	2.9548	3.55852	5.75175	6.5131326	6.4664964
kron	10.035	10.2053	8.55861	12.158991	12.217257
rmat	16.0362	15.2882	9.81909	19.198881	15.212925